<?xml version="1.0" encoding="UTF-8" standalone="no"?>
<!-- Created with Inkscape (http://www.inkscape.org/) -->

<svg
   xmlns:dc="http://purl.org/dc/elements/1.1/"
   xmlns:cc="http://creativecommons.org/ns#"
   xmlns:rdf="http://www.w3.org/1999/02/22-rdf-syntax-ns#"
   xmlns:svg="http://www.w3.org/2000/svg"
   xmlns="http://www.w3.org/2000/svg"
   xmlns:sodipodi="http://sodipodi.sourceforge.net/DTD/sodipodi-0.dtd"
   xmlns:inkscape="http://www.inkscape.org/namespaces/inkscape"
   version="1.1"
   id="svg815"
   width="350"
   height="85"
   viewBox="0 0 350 85.00001"
   sodipodi:docname="logo.svg"
   inkscape:version="0.92.5 (2060ec1f9f, 2020-04-08)">
  <metadata
     id="metadata821">
    <rdf:RDF>
      <cc:Work
         rdf:about="">
        <dc:format>image/svg+xml</dc:format>
        <dc:type
           rdf:resource="http://purl.org/dc/dcmitype/StillImage" />
        <dc:title />
      </cc:Work>
    </rdf:RDF>
  </metadata>
  <defs
     id="defs819" />
  <sodipodi:namedview
     pagecolor="#ffffff"
     bordercolor="#666666"
     borderopacity="1"
     objecttolerance="10"
     gridtolerance="10"
     guidetolerance="10"
     inkscape:pageopacity="0"
     inkscape:pageshadow="2"
     inkscape:window-width="3840"
     inkscape:window-height="2066"
     id="namedview817"
     showgrid="false"
     inkscape:zoom="4.9421875"
     inkscape:cx="166.73248"
     inkscape:cy="8.4617429"
     inkscape:window-x="-11"
     inkscape:window-y="-11"
     inkscape:window-maximized="1"
     inkscape:current-layer="svg815" />
  <path
     inkscape:connector-curvature="0"
     id="path822"
     style="font-style:normal;font-variant:normal;font-weight:normal;font-stretch:normal;font-size:24.37856483px;line-height:1.25;font-family:Micra;-inkscape-font-specification:Micra;letter-spacing:0px;word-spacing:0px;fill:#ffffff;fill-opacity:1;stroke:none;stroke-width:1.84660316;stroke-opacity:0.99168976"
     d="m 85.968374,41.784982 q 5.884509,0 7.411035,0.689398 1.895847,0.861748 1.895847,4.136391 0,3.102294 -2.289789,4.062528 -1.871225,0.787885 -7.583385,0.787885 -6.179966,0 -7.952704,-1.354177 -1.354176,-1.034097 -1.354176,-4.505712 h 2.51138 q 0,2.388274 1.05872,3.003808 1.058719,0.590914 5.761402,0.590914 4.604197,0 5.958373,-0.443186 1.378798,-0.443184 1.378798,-2.14206 0,-1.723496 -1.034099,-2.142059 -1.009476,-0.418563 -5.761402,-0.418563 -5.810645,0 -7.804977,-1.40342 -1.526525,-1.058719 -1.526525,-3.816313 0,-2.979187 1.821982,-3.840935 1.846603,-0.88637 7.50952,-0.88637 5.638295,0 7.411035,1.354176 1.403418,1.083341 1.403418,4.234878 H 92.32069 q 0,-2.166682 -1.107963,-2.732974 -1.107961,-0.566291 -5.244353,-0.566291 -3.545478,0 -4.357984,0.09848 -2.462137,0.295457 -2.462137,2.339031 0,1.723496 1.329554,2.339031 1.329555,0.615535 5.490567,0.615535 z" />
  <path
     inkscape:connector-curvature="0"
     id="path824"
     style="font-style:normal;font-variant:normal;font-weight:normal;font-stretch:normal;font-size:24.37856483px;line-height:1.25;font-family:Micra;-inkscape-font-specification:Micra;letter-spacing:0px;word-spacing:0px;fill:#ffffff;fill-opacity:1;stroke:none;stroke-width:1.84660316;stroke-opacity:0.99168976"
     d="M 102.0019,51.21497 H 99.490508 V 34.373947 h 2.511392 z" />
  <path
     inkscape:connector-curvature="0"
     id="path826"
     style="font-style:normal;font-variant:normal;font-weight:normal;font-stretch:normal;font-size:24.37856483px;line-height:1.25;font-family:Micra;-inkscape-font-specification:Micra;letter-spacing:0px;word-spacing:0px;fill:#ffffff;fill-opacity:1;stroke:none;stroke-width:1.84660316;stroke-opacity:0.99168976"
     d="m 106.10943,34.373947 h 17.60428 v 2.265167 h -7.53414 V 51.21497 H 113.6682 V 36.639114 h -7.55877 z" />
  <path
     inkscape:connector-curvature="0"
     id="path828"
     style="font-style:normal;font-variant:normal;font-weight:normal;font-stretch:normal;font-size:24.37856483px;line-height:1.25;font-family:Micra;-inkscape-font-specification:Micra;letter-spacing:0px;word-spacing:0px;fill:#ffffff;fill-opacity:1;stroke:none;stroke-width:1.84660316;stroke-opacity:0.99168976"
     d="m 126.64443,34.373947 h 16.127 v 2.265167 H 129.1558 v 4.899654 h 13.14783 v 2.265167 H 129.1558 v 5.145868 h 13.61563 v 2.265167 h -16.127 z" />
  <path
     inkscape:connector-curvature="0"
     id="path830"
     style="font-style:normal;font-variant:normal;font-weight:normal;font-stretch:normal;font-size:24.37856483px;line-height:1.25;font-family:Micra;-inkscape-font-specification:Micra;letter-spacing:0px;word-spacing:0px;fill:#ffffff;fill-opacity:1;stroke:none;stroke-width:1.84660316;stroke-opacity:0.99168976"
     d="m 150.05551,42.819079 q 0,4.604198 0.98486,5.490568 0.98485,0.88637 6.03224,0.88637 4.70267,0 5.73677,-0.517049 1.20645,-0.615535 1.20645,-3.323887 h 2.51139 q 0,4.013286 -1.67425,5.072004 -1.64964,1.034099 -7.78036,1.034099 -6.22922,0 -7.87884,-1.477283 -1.64964,-1.477283 -1.64964,-7.164822 0,-5.71216 1.62501,-7.189442 1.64963,-1.501904 7.90347,-1.501904 6.15534,0 7.80497,1.034098 1.64964,1.034097 1.64964,5.072004 h -2.51139 q 0,-2.708352 -1.10796,-3.250023 -1.10796,-0.566291 -5.83526,-0.566291 -5.07201,0 -6.05687,0.88637 -0.96023,0.861748 -0.96023,5.515188 z" />
  <path
     inkscape:connector-curvature="0"
     id="path832"
     style="font-style:normal;font-variant:normal;font-weight:normal;font-stretch:normal;font-size:24.37856483px;line-height:1.25;font-family:Micra;-inkscape-font-specification:Micra;letter-spacing:0px;word-spacing:0px;fill:#ffffff;fill-opacity:1;stroke:none;stroke-width:1.84660316;stroke-opacity:0.99168976"
     d="m 181.20463,51.461184 q -5.24435,0 -7.33717,-0.664778 -2.09281,-0.689399 -2.65911,-2.585245 -0.39394,-1.304933 -0.39394,-5.392082 0,-4.161012 0.36932,-5.392081 0.56629,-1.920468 2.68373,-2.609866 2.11744,-0.689399 7.33717,-0.689399 5.24435,0 7.31255,0.689399 2.09282,0.664777 2.68373,2.585244 0.39394,1.304933 0.39394,5.416703 0,4.136392 -0.36932,5.36746 -0.56629,1.920468 -2.6591,2.609867 -2.09282,0.664778 -7.3618,0.664778 z m 0,-2.265167 q 5.81065,0 6.84475,-0.861749 1.03409,-0.861748 1.03409,-5.515189 0,-4.678061 -1.03409,-5.53981 -1.00948,-0.861748 -6.84475,-0.861748 -5.83526,0 -6.86936,0.861748 -1.00948,0.861749 -1.00948,5.53981 0,4.628819 1.0341,5.515189 1.0341,0.861749 6.84474,0.861749 z" />
  <path
     inkscape:connector-curvature="0"
     id="path834"
     style="font-style:normal;font-variant:normal;font-weight:normal;font-stretch:normal;font-size:24.37856483px;line-height:1.25;font-family:Micra;-inkscape-font-specification:Micra;letter-spacing:0px;word-spacing:0px;fill:#ffffff;fill-opacity:1;stroke:none;stroke-width:1.84660316;stroke-opacity:0.99168976"
     d="m 199.85687,34.373947 8.71597,13.837214 8.71596,-13.837214 h 4.48109 V 51.21497 h -2.48675 V 36.639114 h -0.49243 l -9.42999,14.575856 h -1.57576 l -9.42999,-14.575856 h -0.46781 V 51.21497 h -2.51138 V 34.373947 Z" />
  <path
     inkscape:connector-curvature="0"
     id="path836"
     style="font-style:normal;font-variant:normal;font-weight:normal;font-stretch:normal;font-size:24.37856483px;line-height:1.25;font-family:Micra;-inkscape-font-specification:Micra;letter-spacing:0px;word-spacing:0px;fill:#ffffff;fill-opacity:1;stroke:none;stroke-width:1.84660316;stroke-opacity:0.99168976"
     d="m 231.54727,34.373947 8.71597,13.837214 8.71597,-13.837214 h 4.48109 V 51.21497 h -2.48676 V 36.639114 h -0.49243 l -9.42999,14.575856 h -1.57577 l -9.42998,-14.575856 h -0.46781 V 51.21497 h -2.51137 V 34.373947 Z" />
  <path
     inkscape:connector-curvature="0"
     id="path838"
     style="font-style:normal;font-variant:normal;font-weight:normal;font-stretch:normal;font-size:24.37856483px;line-height:1.25;font-family:Micra;-inkscape-font-specification:Micra;letter-spacing:0px;word-spacing:0px;fill:#ffffff;fill-opacity:1;stroke:none;stroke-width:1.84660316;stroke-opacity:0.99168976"
     d="m 258.21492,34.373947 h 16.127 v 2.265167 h -13.61561 v 4.899654 h 13.14781 v 2.265167 h -13.14781 v 5.145868 h 13.61561 v 2.265167 h -16.127 z" />
  <path
     inkscape:connector-curvature="0"
     id="path840"
     style="font-style:normal;font-variant:normal;font-weight:normal;font-stretch:normal;font-size:24.37856483px;line-height:1.25;font-family:Micra;-inkscape-font-specification:Micra;letter-spacing:0px;word-spacing:0px;fill:#ffffff;fill-opacity:1;stroke:none;stroke-width:1.84660316;stroke-opacity:0.99168976"
     d="m 279.13925,34.373947 h 15.11752 q 2.14206,0 3.29927,1.477282 1.1572,1.452662 1.1572,3.890178 0,2.092818 -0.66477,3.126915 -0.46782,0.738641 -1.50192,1.181827 0.911,0.36932 1.42805,0.960234 0.73864,0.837126 0.73864,2.068195 v 4.136392 h -2.48676 v -4.136392 q 0,-0.837127 -0.8125,-1.378798 -0.78788,-0.566291 -1.92047,-0.566291 h -11.84289 v 6.081481 h -2.51137 z m 2.51137,8.469754 h 11.59668 q 1.3788,0 2.01895,-0.467807 0.96023,-0.714019 0.96023,-2.634487 0,-1.920467 -0.93561,-2.609866 -0.66477,-0.492427 -2.04357,-0.492427 h -11.59668 z" />
  <path
     inkscape:connector-curvature="0"
     id="path842"
     style="font-style:normal;font-variant:normal;font-weight:normal;font-stretch:normal;font-size:24.37856483px;line-height:1.25;font-family:Micra;-inkscape-font-specification:Micra;letter-spacing:0px;word-spacing:0px;fill:#ffffff;fill-opacity:1;stroke:none;stroke-width:1.84660316;stroke-opacity:0.99168976"
     d="m 305.95885,42.819079 q 0,4.604198 0.98486,5.490568 0.98485,0.88637 6.03224,0.88637 4.70268,0 5.73678,-0.517049 1.20644,-0.615535 1.20644,-3.323887 h 2.51138 q 0,4.013286 -1.67425,5.072004 -1.64963,1.034099 -7.78035,1.034099 -6.22921,0 -7.87885,-1.477283 -1.64963,-1.477283 -1.64963,-7.164822 0,-5.71216 1.62502,-7.189442 1.64962,-1.501904 7.90346,-1.501904 6.15534,0 7.80497,1.034098 1.64963,1.034097 1.64963,5.072004 h -2.51138 q 0,-2.708352 -1.10795,-3.250023 -1.10797,-0.566291 -5.83527,-0.566291 -5.07201,0 -6.05686,0.88637 -0.96024,0.861748 -0.96024,5.515188 z" />
  <path
     inkscape:connector-curvature="0"
     id="path844"
     style="font-style:normal;font-variant:normal;font-weight:normal;font-stretch:normal;font-size:24.37856483px;line-height:1.25;font-family:Micra;-inkscape-font-specification:Micra;letter-spacing:0px;word-spacing:0px;fill:#ffffff;fill-opacity:1;stroke:none;stroke-width:1.84660316;stroke-opacity:0.99168976"
     d="m 326.69314,34.373947 h 16.127 v 2.265167 h -13.61563 v 4.899654 h 13.14783 v 2.265167 h -13.14783 v 5.145868 h 13.61563 v 2.265167 h -16.127 z" />
  <g
     aria-label="интернет-магазин на Drupal"
     style="font-style:normal;font-weight:normal;font-size:11.36757565px;line-height:1.25;font-family:sans-serif;letter-spacing:0px;word-spacing:0px;fill:#ffffff;fill-opacity:1;stroke:none;stroke-width:0.71047348"
     id="text861"
     transform="matrix(1.2742904,0,0,1.2742904,-55.27722,-20.821718)">
    <path
       d="m 130.8247,72.982185 h -1.03241 v -4.656931 l -3.24708,4.656931 h -0.9436 v -6.199991 h 1.03241 v 4.590325 l 3.21378,-4.590325 h 0.9769 z"
       style="fill:#ffffff;stroke-width:0.71047348"
       id="path863"
       inkscape:connector-curvature="0" />
    <path
       d="m 138.07375,72.982185 h -1.04351 v -2.791938 h -3.10277 v 2.791938 h -1.04351 v -6.199991 h 1.04351 v 2.50886 h 3.10277 v -2.50886 h 1.04351 z"
       style="fill:#ffffff;stroke-width:0.71047348"
       id="path865"
       inkscape:connector-curvature="0" />
    <path
       d="m 144.67893,67.698039 h -2.24243 v 5.284146 h -1.04351 v -5.284146 h -2.24243 v -0.915845 h 5.52837 z"
       style="fill:#ffffff;stroke-width:0.71047348"
       id="path867"
       inkscape:connector-curvature="0" />
    <path
       d="m 150.95108,69.990426 h -4.56812 q 0,0.571709 0.17207,0.999103 0.17206,0.421844 0.4718,0.693822 0.28862,0.266428 0.68272,0.399641 0.39964,0.133214 0.87699,0.133214 0.63276,0 1.27108,-0.249776 0.64386,-0.255326 0.91584,-0.499551 h 0.0555 v 1.137867 q -0.52731,0.222023 -1.07681,0.371889 -0.54951,0.149865 -1.15452,0.149865 -1.54306,0 -2.40895,-0.832586 -0.86589,-0.838136 -0.86589,-2.375646 0,-1.520857 0.82703,-2.414499 0.83259,-0.893643 2.18693,-0.893643 1.25443,0 1.9316,0.732676 0.68272,0.732676 0.68272,2.081465 z m -1.01575,-0.799283 q -0.006,-0.821485 -0.4163,-1.271081 -0.40519,-0.449597 -1.23778,-0.449597 -0.83813,0 -1.33768,0.494001 -0.494,0.494002 -0.56061,1.226677 z"
       style="fill:#ffffff;stroke-width:0.71047348"
       id="path869"
       inkscape:connector-curvature="0" />
    <path
       d="m 157.98921,69.807257 q 0,0.754878 -0.21647,1.382093 -0.21648,0.621664 -0.61057,1.054609 -0.36634,0.410742 -0.86589,0.638316 -0.494,0.222023 -1.04906,0.222023 -0.4829,0 -0.87699,-0.105461 -0.38854,-0.105461 -0.79373,-0.327484 v 2.597669 h -1.04351 v -8.486828 h 1.04351 v 0.649417 q 0.4163,-0.349686 0.9325,-0.58281 0.52175,-0.238675 1.11011,-0.238675 1.12122,0 1.74288,0.849238 0.62722,0.843687 0.62722,2.347893 z m -1.07681,0.02775 q 0,-1.121216 -0.38299,-1.676273 -0.38299,-0.555058 -1.17672,-0.555058 -0.4496,0 -0.90475,0.19427 -0.45514,0.19427 -0.87144,0.510653 v 3.513513 q 0.44405,0.199821 0.76043,0.271979 0.32193,0.07216 0.72713,0.07216 0.87144,0 1.35989,-0.588361 0.48845,-0.588361 0.48845,-1.74288 z"
       style="fill:#ffffff;stroke-width:0.71047348"
       id="path871"
       inkscape:connector-curvature="0" />
    <path
       d="m 164.80531,72.982185 h -1.04351 v -2.791938 h -3.10277 v 2.791938 h -1.0435 v -6.199991 h 1.0435 v 2.50886 h 3.10277 v -2.50886 h 1.04351 z"
       style="fill:#ffffff;stroke-width:0.71047348"
       id="path873"
       inkscape:connector-curvature="0" />
    <path
       d="m 172.04326,69.990426 h -4.56812 q 0,0.571709 0.17207,0.999103 0.17206,0.421844 0.4718,0.693822 0.28863,0.266428 0.68272,0.399641 0.39964,0.133214 0.87699,0.133214 0.63276,0 1.27108,-0.249776 0.64386,-0.255326 0.91584,-0.499551 h 0.0555 v 1.137867 q -0.52731,0.222023 -1.07681,0.371889 -0.54951,0.149865 -1.15452,0.149865 -1.54306,0 -2.40895,-0.832586 -0.86589,-0.838136 -0.86589,-2.375646 0,-1.520857 0.82703,-2.414499 0.83259,-0.893643 2.18693,-0.893643 1.25443,0 1.9316,0.732676 0.68272,0.732676 0.68272,2.081465 z m -1.01575,-0.799283 q -0.006,-0.821485 -0.4163,-1.271081 -0.40519,-0.449597 -1.23777,-0.449597 -0.83814,0 -1.33769,0.494001 -0.494,0.494002 -0.56061,1.226677 z"
       style="fill:#ffffff;stroke-width:0.71047348"
       id="path875"
       inkscape:connector-curvature="0" />
    <path
       d="m 178.1822,67.698039 h -2.24243 v 5.284146 h -1.04351 v -5.284146 h -2.24243 v -0.915845 h 5.52837 z"
       style="fill:#ffffff;stroke-width:0.71047348"
       id="path877"
       inkscape:connector-curvature="0" />
    <path
       d="m 182.5505,69.868313 h -3.46356 v -1.004654 h 3.46356 z"
       style="fill:#ffffff;stroke-width:0.71047348"
       id="path879"
       inkscape:connector-curvature="0" />
    <path
       d="m 190.2991,72.982185 h -1.03241 v -4.895606 l -1.54306,3.18603 h -0.77708 l -1.53196,-3.18603 v 4.895606 h -0.9769 v -6.199991 h 1.25998 l 1.68738,3.469109 1.63187,-3.469109 h 1.28218 z"
       style="fill:#ffffff;stroke-width:0.71047348"
       id="path881"
       inkscape:connector-curvature="0" />
    <path
       d="m 197.18181,72.982185 h -1.03795 v -0.660518 q -0.13877,0.09436 -0.37744,0.266428 -0.23313,0.166517 -0.45515,0.266427 -0.26088,0.127663 -0.59946,0.210922 -0.33859,0.08881 -0.79373,0.08881 -0.83814,0 -1.42095,-0.555057 -0.58281,-0.555058 -0.58281,-1.415397 0,-0.704923 0.29973,-1.137867 0.30528,-0.438496 0.86589,-0.688271 0.56616,-0.249776 1.35989,-0.338586 0.79373,-0.08881 1.70403,-0.133213 v -0.160967 q 0,-0.355237 -0.12767,-0.588361 -0.12211,-0.233124 -0.35523,-0.366338 -0.22203,-0.127663 -0.53286,-0.172067 -0.31083,-0.0444 -0.64942,-0.0444 -0.41074,0 -0.91584,0.111011 -0.5051,0.105461 -1.04351,0.310833 h -0.0555 v -1.06016 q 0.30528,-0.08326 0.88254,-0.183169 0.57726,-0.09991 1.13786,-0.09991 0.65497,0 1.13787,0.111011 0.48845,0.105461 0.84369,0.366338 0.34969,0.255326 0.53285,0.660518 0.18317,0.405192 0.18317,1.004654 z m -1.03795,-1.526407 v -1.726229 q -0.47735,0.02775 -1.12677,0.08326 -0.64387,0.0555 -1.02131,0.160966 -0.44959,0.127663 -0.72712,0.399642 -0.27753,0.266427 -0.27753,0.738226 0,0.532855 0.32193,0.804833 0.32194,0.266428 0.98245,0.266428 0.54951,0 1.00466,-0.210922 0.45515,-0.216473 0.84369,-0.516204 z"
       style="fill:#ffffff;stroke-width:0.71047348"
       id="path883"
       inkscape:connector-curvature="0" />
    <path
       d="m 203.47616,67.698039 h -3.23043 v 5.284146 h -1.04351 v -6.199991 h 4.27394 z"
       style="fill:#ffffff;stroke-width:0.71047348"
       id="path885"
       inkscape:connector-curvature="0" />
    <path
       d="m 209.37087,72.982185 h -1.03796 v -0.660518 q -0.13876,0.09436 -0.37744,0.266428 -0.23312,0.166517 -0.45514,0.266427 -0.26088,0.127663 -0.59947,0.210922 -0.33858,0.08881 -0.79373,0.08881 -0.83813,0 -1.42094,-0.555057 -0.58281,-0.555058 -0.58281,-1.415397 0,-0.704923 0.29973,-1.137867 0.30528,-0.438496 0.86589,-0.688271 0.56615,-0.249776 1.35989,-0.338586 0.79373,-0.08881 1.70402,-0.133213 v -0.160967 q 0,-0.355237 -0.12766,-0.588361 -0.12211,-0.233124 -0.35524,-0.366338 -0.22202,-0.127663 -0.53285,-0.172067 -0.31083,-0.0444 -0.64942,-0.0444 -0.41074,0 -0.91584,0.111011 -0.50511,0.105461 -1.04351,0.310833 h -0.0555 v -1.06016 q 0.30528,-0.08326 0.88254,-0.183169 0.57726,-0.09991 1.13787,-0.09991 0.65497,0 1.13787,0.111011 0.48845,0.105461 0.84369,0.366338 0.34968,0.255326 0.53285,0.660518 0.18317,0.405192 0.18317,1.004654 z m -1.03796,-1.526407 v -1.726229 q -0.47735,0.02775 -1.12676,0.08326 -0.64387,0.0555 -1.02131,0.160966 -0.4496,0.127663 -0.72712,0.399642 -0.27753,0.266427 -0.27753,0.738226 0,0.532855 0.32193,0.804833 0.32193,0.266428 0.98245,0.266428 0.54951,0 1.00466,-0.210922 0.45514,-0.216473 0.84368,-0.516204 z"
       style="fill:#ffffff;stroke-width:0.71047348"
       id="path887"
       inkscape:connector-curvature="0" />
    <path
       d="m 215.70408,71.244856 q 0,0.521754 -0.24423,0.882541 -0.23867,0.360787 -0.61611,0.58281 -0.37744,0.216473 -0.83259,0.316383 -0.45514,0.09991 -0.91029,0.09991 -0.64387,0 -1.22668,-0.122112 -0.58281,-0.122113 -1.14897,-0.377439 V 71.48353 h 0.0722 q 0.40519,0.355237 1.03241,0.549507 0.62721,0.19427 1.21557,0.19427 0.27753,0 0.57171,-0.04995 0.29418,-0.05551 0.51065,-0.172068 0.23313,-0.133213 0.37189,-0.316382 0.13877,-0.18872 0.13877,-0.510653 0,-0.333035 -0.13877,-0.532855 -0.13321,-0.199821 -0.36633,-0.299731 -0.22758,-0.09991 -0.54951,-0.122113 -0.32193,-0.0222 -0.58836,-0.0222 h -0.90475 v -0.899193 h 0.62722 q 0.22202,0 0.57726,-0.01665 0.36079,-0.01665 0.58281,-0.08881 0.28863,-0.09436 0.45515,-0.266428 0.17206,-0.172067 0.17206,-0.549507 0,-0.260877 -0.13321,-0.427394 -0.13321,-0.172068 -0.33303,-0.266427 -0.20538,-0.09436 -0.4607,-0.127663 -0.24978,-0.0333 -0.44405,-0.0333 -0.56616,0 -1.11566,0.155416 -0.54396,0.149866 -0.91585,0.438495 h -0.0722 v -1.148968 q 0.4607,-0.149866 0.98801,-0.244226 0.5273,-0.09436 1.05461,-0.09436 0.43294,0 0.86033,0.07771 0.43295,0.07771 0.80484,0.266427 0.36634,0.18872 0.59946,0.516204 0.23312,0.321933 0.23312,0.799282 0,0.488451 -0.30528,0.860339 -0.29973,0.366338 -0.81038,0.527305 v 0.03885 q 0.57171,0.138764 0.91029,0.521754 0.33859,0.377439 0.33859,1.004654 z"
       style="fill:#ffffff;stroke-width:0.71047348"
       id="path889"
       inkscape:connector-curvature="0" />
    <path
       d="m 222.58679,72.982185 h -1.0324 v -4.656931 l -3.24709,4.656931 h -0.9436 v -6.199991 h 1.03241 v 4.590325 l 3.21378,-4.590325 h 0.9769 z"
       style="fill:#ffffff;stroke-width:0.71047348"
       id="path891"
       inkscape:connector-curvature="0" />
    <path
       d="m 229.83584,72.982185 h -1.04351 v -2.791938 h -3.10277 v 2.791938 h -1.04351 v -6.199991 h 1.04351 v 2.50886 h 3.10277 v -2.50886 h 1.04351 z"
       style="fill:#ffffff;stroke-width:0.71047348"
       id="path893"
       inkscape:connector-curvature="0" />
    <path
       d="m 241.0702,72.982185 h -1.0435 v -2.791938 h -3.10277 v 2.791938 h -1.04351 v -6.199991 h 1.04351 v 2.50886 h 3.10277 v -2.50886 h 1.0435 z"
       style="fill:#ffffff;stroke-width:0.71047348"
       id="path895"
       inkscape:connector-curvature="0" />
    <path
       d="m 247.93626,72.982185 h -1.03796 v -0.660518 q -0.13876,0.09436 -0.37743,0.266428 -0.23313,0.166517 -0.45515,0.266427 -0.26088,0.127663 -0.59946,0.210922 -0.33859,0.08881 -0.79374,0.08881 -0.83813,0 -1.42094,-0.555057 -0.58281,-0.555058 -0.58281,-1.415397 0,-0.704923 0.29973,-1.137867 0.30528,-0.438496 0.86589,-0.688271 0.56616,-0.249776 1.35989,-0.338586 0.79373,-0.08881 1.70402,-0.133213 v -0.160967 q 0,-0.355237 -0.12766,-0.588361 -0.12211,-0.233124 -0.35524,-0.366338 -0.22202,-0.127663 -0.53285,-0.172067 -0.31083,-0.0444 -0.64942,-0.0444 -0.41074,0 -0.91584,0.111011 -0.50511,0.105461 -1.04351,0.310833 h -0.0555 v -1.06016 q 0.30529,-0.08326 0.88254,-0.183169 0.57726,-0.09991 1.13787,-0.09991 0.65497,0 1.13787,0.111011 0.48845,0.105461 0.84369,0.366338 0.34968,0.255326 0.53285,0.660518 0.18317,0.405192 0.18317,1.004654 z m -1.03796,-1.526407 v -1.726229 q -0.47735,0.02775 -1.12676,0.08326 -0.64387,0.0555 -1.02131,0.160966 -0.44959,0.127663 -0.72712,0.399642 -0.27753,0.266427 -0.27753,0.738226 0,0.532855 0.32193,0.804833 0.32193,0.266428 0.98245,0.266428 0.54951,0 1.00466,-0.210922 0.45514,-0.216473 0.84368,-0.516204 z"
       style="fill:#ffffff;stroke-width:0.71047348"
       id="path897"
       inkscape:connector-curvature="0" />
    <path
       d="m 261.01896,68.858109 q 0,1.126766 -0.494,2.042611 -0.48845,0.915845 -1.30439,1.420947 -0.56615,0.349686 -1.26553,0.505102 -0.69382,0.155416 -1.83169,0.155416 h -2.08701 v -8.264804 h 2.06481 q 1.21003,0 1.9205,0.177618 0.71602,0.172068 1.21003,0.477349 0.84368,0.527305 1.31548,1.404296 0.4718,0.87699 0.4718,2.081465 z m -1.14897,-0.01665 q 0,-0.97135 -0.33858,-1.637419 -0.33859,-0.666069 -1.01021,-1.049059 -0.48845,-0.277528 -1.03795,-0.382989 -0.54951,-0.111012 -1.31549,-0.111012 h -1.03241 v 6.37761 h 1.03241 q 0.79373,0 1.38209,-0.116562 0.59391,-0.116562 1.08791,-0.432945 0.61612,-0.394091 0.9214,-1.037957 0.31083,-0.643867 0.31083,-1.609667 z"
       style="fill:#ffffff;stroke-width:0.71047348"
       id="path899"
       inkscape:connector-curvature="0" />
    <path
       d="m 266.59174,67.920062 h -0.0555 q -0.23313,-0.05551 -0.45515,-0.07771 -0.21647,-0.02775 -0.5162,-0.02775 -0.4829,0 -0.9325,0.216472 -0.4496,0.210922 -0.86589,0.549507 v 4.401605 h -1.04351 v -6.199991 h 1.04351 v 0.915845 q 0.62166,-0.499552 1.09346,-0.704923 0.47735,-0.210922 0.97135,-0.210922 0.27198,0 0.39409,0.01665 0.12212,0.0111 0.36634,0.04995 z"
       style="fill:#ffffff;stroke-width:0.71047348"
       id="path901"
       inkscape:connector-curvature="0" />
    <path
       d="m 272.72513,72.982185 h -1.04351 v -0.688271 q -0.5273,0.416293 -1.0102,0.638316 -0.4829,0.222023 -1.06571,0.222023 -0.9769,0 -1.52086,-0.593911 -0.54396,-0.599462 -0.54396,-1.753982 v -4.024166 h 1.04351 v 3.530165 q 0,0.471799 0.0444,0.810384 0.0444,0.333035 0.18871,0.571709 0.14987,0.244225 0.38854,0.355237 0.23868,0.111011 0.69383,0.111011 0.40519,0 0.88254,-0.210921 0.4829,-0.210922 0.89919,-0.538406 v -4.629179 h 1.04351 z"
       style="fill:#ffffff;stroke-width:0.71047348"
       id="path903"
       inkscape:connector-curvature="0" />
    <path
       d="m 280.23505,69.807257 q 0,0.754878 -0.21647,1.382093 -0.21647,0.621664 -0.61056,1.054609 -0.36634,0.410742 -0.86589,0.638316 -0.494,0.222023 -1.04906,0.222023 -0.4829,0 -0.87699,-0.105461 -0.38854,-0.105461 -0.79373,-0.327484 v 2.597669 h -1.04351 v -8.486828 h 1.04351 v 0.649417 q 0.41629,-0.349686 0.93249,-0.58281 0.52176,-0.238675 1.11012,-0.238675 1.12121,0 1.74288,0.849238 0.62721,0.843687 0.62721,2.347893 z m -1.07681,0.02775 q 0,-1.121216 -0.38299,-1.676273 -0.38299,-0.555058 -1.17672,-0.555058 -0.4496,0 -0.90474,0.19427 -0.45515,0.19427 -0.87144,0.510653 v 3.513513 q 0.44404,0.199821 0.76043,0.271979 0.32193,0.07216 0.72712,0.07216 0.87144,0 1.35989,-0.588361 0.48845,-0.588361 0.48845,-1.74288 z"
       style="fill:#ffffff;stroke-width:0.71047348"
       id="path905"
       inkscape:connector-curvature="0" />
    <path
       d="m 286.67927,72.982185 h -1.03795 v -0.660518 q -0.13877,0.09436 -0.37744,0.266428 -0.23313,0.166517 -0.45515,0.266427 -0.26088,0.127663 -0.59946,0.210922 -0.33859,0.08881 -0.79373,0.08881 -0.83814,0 -1.42095,-0.555057 -0.58281,-0.555058 -0.58281,-1.415397 0,-0.704923 0.29973,-1.137867 0.30528,-0.438496 0.86589,-0.688271 0.56616,-0.249776 1.35989,-0.338586 0.79373,-0.08881 1.70403,-0.133213 v -0.160967 q 0,-0.355237 -0.12767,-0.588361 -0.12211,-0.233124 -0.35523,-0.366338 -0.22203,-0.127663 -0.53286,-0.172067 -0.31083,-0.0444 -0.64942,-0.0444 -0.41074,0 -0.91584,0.111011 -0.5051,0.105461 -1.04351,0.310833 h -0.0555 v -1.06016 q 0.30529,-0.08326 0.88255,-0.183169 0.57726,-0.09991 1.13786,-0.09991 0.65497,0 1.13787,0.111011 0.48845,0.105461 0.84369,0.366338 0.34969,0.255326 0.53285,0.660518 0.18317,0.405192 0.18317,1.004654 z m -1.03795,-1.526407 v -1.726229 q -0.47735,0.02775 -1.12677,0.08326 -0.64387,0.0555 -1.02131,0.160966 -0.44959,0.127663 -0.72712,0.399642 -0.27753,0.266427 -0.27753,0.738226 0,0.532855 0.32193,0.804833 0.32194,0.266428 0.98245,0.266428 0.54951,0 1.00466,-0.210922 0.45515,-0.216473 0.84369,-0.516204 z"
       style="fill:#ffffff;stroke-width:0.71047348"
       id="path907"
       inkscape:connector-curvature="0" />
    <path
       d="m 289.75429,72.982185 h -1.04351 v -8.636693 h 1.04351 z"
       style="fill:#ffffff;stroke-width:0.71047348"
       id="path909"
       inkscape:connector-curvature="0" />
  </g>
  <path
     class="cls-1"
     d="M 45.910499,18.826649 C 40.086009,12.992734 34.515987,7.4415612 32.866657,1.1741086 31.207903,7.4415612 25.65673,12.992734 19.813391,18.826649 11.067231,27.563383 1.1524032,37.468786 1.1524032,52.331603 a 31.714253,31.714253 0 1 0 63.4285068,0 c 0,-14.862817 -9.914827,-24.76822 -18.670411,-33.504954 z M 17.466631,55.224998 a 20.55536,20.55536 0 0 0 -2.488132,3.939542 0.80110298,0.80110298 0 0 1 -0.53721,0.452387 l -0.09425,-0.0094 v 0 a 0.80110298,0.80110298 0 0 1 -0.197919,0 v 0 c -0.716281,-0.06597 -1.555083,-1.394862 -1.555083,-1.394862 v 0 C 12.386695,57.882775 12.188776,57.543484 12.000281,57.17592 L 11.85891,56.883753 c -1.790701,-4.231709 -0.245044,-10.19757 -0.245044,-10.19757 v 0 a 26.18193,26.18193 0 0 1 3.769897,-8.142976 45.889064,45.889064 0 0 1 3.44003,-4.382505 l 1.526808,1.441985 7.09683,7.257051 a 0.80110298,0.80110298 0 0 1 0,1.07442 l -7.417271,8.237224 v 0 z M 33.196523,76.006552 A 10.979823,10.979823 0 0 1 25.100671,57.722554 c 2.327911,-2.761449 5.145908,-5.466349 8.218374,-9.000627 3.63795,3.892418 5.956436,6.550195 8.35032,9.424741 a 5.3438281,5.3438281 0 0 1 0.490087,0.71628 10.885576,10.885576 0 0 1 -8.962929,17.143604 z M 53.855555,58.561356 a 1.310039,1.310039 0 0 1 -1.017872,0.876501 h -0.197919 a 1.8849482,1.8849482 0 0 1 -1.036722,-0.772828 v 0 A 56.887736,56.887736 0 0 0 45.175369,50.672848 L 42.263124,47.600383 32.602765,37.553609 C 30.981709,35.979677 28.050615,33.16168 26.834823,31.625447 L 26.684027,31.399253 A 5.5982961,5.5982961 0 0 1 25.920623,29.88187 c 0,-0.09425 0,-0.188495 0,-0.292167 a 5.2590055,5.2590055 0 0 1 0.37699,-2.90282 5.4003766,5.4003766 0 0 1 1.09327,-1.555083 c 1.884948,-1.884948 3.769896,-3.769896 5.513473,-5.711393 1.960346,2.167691 4.043214,4.250558 6.107232,6.314577 v 0 c 4.080913,4.109187 8.322047,8.340895 11.337964,12.930744 3.015917,4.589849 4.439053,8.944079 4.439053,13.65645 a 21.959646,21.959646 0 0 1 -0.93305,6.239178 z"
     id="path8"
     style="fill:#ffffff;stroke-width:0.94247407"
     inkscape:connector-curvature="0" />
</svg>
